<?xml version="1.0" encoding="UTF-8" standalone="no"?>
<svg
   xmlns:dc="http://purl.org/dc/elements/1.1/"
   xmlns:cc="http://creativecommons.org/ns#"
   xmlns:rdf="http://www.w3.org/1999/02/22-rdf-syntax-ns#"
   xmlns:svg="http://www.w3.org/2000/svg"
   xmlns="http://www.w3.org/2000/svg"
   xmlns:sodipodi="http://sodipodi.sourceforge.net/DTD/sodipodi-0.dtd"
   xmlns:inkscape="http://www.inkscape.org/namespaces/inkscape"
   width="210mm"
   version="1.1"
   height="297mm"
   viewBox="0 0 595.27557 841.8898"
   id="svg67292"
   inkscape:version="0.92.3 (unknown)"
   sodipodi:docname="icone.svg"
   inkscape:export-filename="/home/odile/Documents/projet recyclage et modernisation machine à tricoter/communication  et candidature appels projet/communication logo/plaquette/2017_01_01_plaquette retraitée/page 1/2017_01_01machine à tricoter et ordinateur.png"
   inkscape:export-xdpi="600"
   inkscape:export-ydpi="600">
  <metadata
     id="metadata71426">
    <rdf:RDF>
      <cc:Work
         rdf:about="">
        <dc:format>image/svg+xml</dc:format>
        <dc:type
           rdf:resource="http://purl.org/dc/dcmitype/StillImage" />
        <dc:title></dc:title>
      </cc:Work>
    </rdf:RDF>
  </metadata>
  <sodipodi:namedview
     pagecolor="#ffffff"
     bordercolor="#666666"
     borderopacity="1"
     objecttolerance="10"
     gridtolerance="10"
     guidetolerance="10"
     inkscape:pageopacity="0"
     inkscape:pageshadow="2"
     inkscape:window-width="1920"
     inkscape:window-height="1021"
     id="namedview71424"
     showgrid="false"
     fit-margin-top="0"
     fit-margin-left="0"
     fit-margin-right="0"
     fit-margin-bottom="0"
     inkscape:zoom="0.64015615"
     inkscape:cx="192.35333"
     inkscape:cy="331.46673"
     inkscape:window-x="0"
     inkscape:window-y="25"
     inkscape:window-maximized="1"
     inkscape:current-layer="layer4"
     units="mm" />
  <defs
     id="defs67294">
    <inkscape:path-effect
       effect="bspline"
       id="path-effect15756"
       is_visible="true"
       weight="33.333333"
       steps="2"
       helper_size="0"
       apply_no_weight="true"
       apply_with_weight="true"
       only_selected="false" />
    <clipPath
       id="Clip0">
      <path
         d="m 0,0 205.302,0 0,240.886 L 0,240.886 0,0 Z"
         transform="translate(615.737,133.432)"
         id="path67297"
         inkscape:connector-curvature="0" />
    </clipPath>
    <clipPath
       id="Clip1">
      <path
         d="m 0,0 112.286,0 0,87.8971 L 0,87.8971 0,0 Z"
         transform="translate(708.753,286.421)"
         id="path67300"
         inkscape:connector-curvature="0" />
    </clipPath>
    <clipPath
       id="Clip2">
      <path
         d="m 0,0 59.9561,0 0,59.9561 L 0,59.9561 0,0 Z"
         transform="translate(615.737,256.471)"
         id="path67303"
         inkscape:connector-curvature="0" />
    </clipPath>
    <clipPath
       id="Clip3">
      <path
         d="m 0,0 58.8487,0 0,58.8481 L 0,58.8481 0,0 Z"
         transform="translate(627.886,180.452)"
         id="path67306"
         inkscape:connector-curvature="0" />
    </clipPath>
    <clipPath
       id="Clip4">
      <path
         d="m 0,0 59.2441,0 0,59.2442 L 0,59.2442 0,0 Z"
         transform="translate(681.539,133.432)"
         id="path67309"
         inkscape:connector-curvature="0" />
    </clipPath>
    <clipPath
       id="Clip5">
      <path
         d="m 0,0 52.4932,0 0,52.4937 L 0,52.4937 0,0 Z"
         transform="translate(763.336,134.933)"
         id="path67312"
         inkscape:connector-curvature="0" />
    </clipPath>
    <clipPath
       id="Clip6">
      <path
         d="m 0,0 70.7959,0 0,61.3179 L 0,61.3179 0,0 Z"
         transform="translate(711.689,240.455)"
         id="path67315"
         inkscape:connector-curvature="0" />
    </clipPath>
    <clipPath
       id="Clip7">
      <path
         d="m 0,0 64.3233,0 0,31.7285 L 0,31.7285 0,0 Z"
         transform="translate(711.689,270.045)"
         id="path67318"
         inkscape:connector-curvature="0" />
    </clipPath>
    <clipPath
       id="Clip8">
      <path
         d="m 0,0 50.4922,0 0,39.7837 L 0,39.7837 0,0 Z"
         transform="translate(731.992,240.455)"
         id="path67321"
         inkscape:connector-curvature="0" />
    </clipPath>
    <clipPath
       id="Clip9">
      <path
         d="m 0,0 50.4922,0 0,39.7837 L 0,39.7837 0,0 Z"
         transform="translate(731.992,240.455)"
         id="path67324"
         inkscape:connector-curvature="0" />
    </clipPath>
    <clipPath
       id="Clip10">
      <path
         d="m 0,0 50.4922,0 0,39.7837 L 0,39.7837 0,0 Z"
         transform="translate(731.992,240.455)"
         id="path67327"
         inkscape:connector-curvature="0" />
    </clipPath>
    <clipPath
       id="Clip11">
      <path
         d="m 0,0 243.354,0 0,156.427 L 0,156.427 0,0 Z"
         transform="translate(582.249,328.024)"
         id="path67330"
         inkscape:connector-curvature="0" />
    </clipPath>
    <clipPath
       id="Clip12">
      <path
         d="m 0,0 243.354,0 0,156.427 L 0,156.427 0,0 Z"
         transform="translate(582.249,328.024)"
         id="path67333"
         inkscape:connector-curvature="0" />
    </clipPath>
    <clipPath
       id="Clip13">
      <path
         d="m 0,0 243.354,0 0,156.427 L 0,156.427 0,0 Z"
         transform="translate(582.249,328.024)"
         id="path67336"
         inkscape:connector-curvature="0" />
    </clipPath>
    <clipPath
       id="Clip14">
      <path
         d="m 0,0 243.354,0 0,156.427 L 0,156.427 0,0 Z"
         transform="translate(582.249,328.024)"
         id="path67339"
         inkscape:connector-curvature="0" />
    </clipPath>
    <clipPath
       id="Clip15">
      <path
         d="m 0,0 102.371,0 0,95.6179 L 0,95.6179 0,0 Z"
         transform="translate(608.634,328.024)"
         id="path67342"
         inkscape:connector-curvature="0" />
    </clipPath>
    <clipPath
       id="Clip16">
      <path
         d="m -30.501,182.873 258.3,0 0,-510.3 -258.3,0 0,510.3 z"
         transform="translate(608.634,328.024)"
         id="path67345"
         inkscape:connector-curvature="0" />
    </clipPath>
    <clipPath
       id="Clip17">
      <path
         d="m 0,0 14.113,0 0,4.984 L 0,4.984 0,0 Z"
         transform="translate(602.971,373.627)"
         id="path67348"
         inkscape:connector-curvature="0" />
    </clipPath>
    <clipPath
       id="Clip18">
      <path
         d="m 0.005,4.984 14.1051,0 0,-4.98398 -14.1051,0 0,4.98398 z"
         transform="translate(602.971,373.627)"
         id="path67351"
         inkscape:connector-curvature="0" />
    </clipPath>
    <clipPath
       id="Clip19">
      <path
         d="m 0,0 17.665,0 0,5.649 L 0,5.649 0,0 Z"
         transform="translate(627.551,360.691)"
         id="path67354"
         inkscape:connector-curvature="0" />
    </clipPath>
    <clipPath
       id="Clip20">
      <path
         d="m -0.001,5.649 17.666,0 0,-5.64883 -17.666,0 0,5.64883 z"
         transform="translate(627.551,360.691)"
         id="path67357"
         inkscape:connector-curvature="0" />
    </clipPath>
    <clipPath
       id="Clip21">
      <path
         d="m 0,0 13.336,0 0,4.906 L 0,4.906 0,0 Z"
         transform="translate(652.397,360.111)"
         id="path67360"
         inkscape:connector-curvature="0" />
    </clipPath>
    <clipPath
       id="Clip22">
      <path
         d="m 0.007,4.906 13.3211,0 0,-4.90703 -13.3211,0 0,4.90703 z"
         transform="translate(652.397,360.111)"
         id="path67363"
         inkscape:connector-curvature="0" />
    </clipPath>
    <clipPath
       id="Clip23">
      <path
         d="m 0,0 17.84,0 0,6.117 L 0,6.117 0,0 Z"
         transform="translate(627.463,360.457)"
         id="path67366"
         inkscape:connector-curvature="0" />
    </clipPath>
    <clipPath
       id="Clip24">
      <path
         d="m -49.33,150.44 0,-510.3 258.3,0 0,510.3 -258.3,0 z"
         transform="translate(627.463,360.457)"
         id="path67369"
         inkscape:connector-curvature="0" />
    </clipPath>
    <clipPath
       id="Clip25">
      <path
         d="m 0,0 13.472,0 0,5.269 L 0,5.269 0,0 Z"
         transform="translate(652.329,359.93)"
         id="path67372"
         inkscape:connector-curvature="0" />
    </clipPath>
    <clipPath
       id="Clip26">
      <path
         d="m -74.196,150.967 258.3,0 0,-510.3 -258.3,0 0,510.3 z"
         transform="translate(652.329,359.93)"
         id="path67375"
         inkscape:connector-curvature="0" />
    </clipPath>
    <clipPath
       id="Clip27">
      <path
         d="m 0,0 90.379,0 0,84.218 L 0,84.218 0,0 Z"
         transform="translate(683.39,400.233)"
         id="path67378"
         inkscape:connector-curvature="0" />
    </clipPath>
    <clipPath
       id="Clip28">
      <path
         d="m 0.242,13.389 23.479,51.898 c 5.794,-0.325 12.711,4.633 16.353,12.173 0.826,1.708 1.411,3.429 1.768,5.11 L 88.329,65.283 C 87.052,64.058 85.889,62.669 84.898,61.147 80.524,54.429 80.762,47.508 85.073,44.539 L 54.592,0.466 0.242,13.389 Z"
         transform="translate(683.39,400.233)"
         id="path67381"
         inkscape:connector-curvature="0" />
    </clipPath>
  </defs>
  <g
     inkscape:groupmode="layer"
     id="layer5"
     inkscape:label="pieds"
     style="display:none">
    <path
       transform="matrix(2.3994714,0,0,2.3994714,-1398.6429,-319.52869)"
       style="display:inline;fill:#cfbab0;fill-rule:nonzero;stroke:none"
       id=" path11296"
       d="m 793.54275,378.62827 v 52.188 l 14.38,15.222 v -63.58"
       inkscape:connector-curvature="0" />
    <path
       transform="matrix(2.3994714,0,0,2.3994714,-1398.6429,-319.52869)"
       style="display:inline;fill:#fcdbc6;fill-rule:nonzero;stroke:none"
       id=" path11298"
       d="m 815.17875,384.39127 -7.256,-1.933 v 63.58 l 7.256,-1.849"
       inkscape:connector-curvature="0" />
    <path
       transform="matrix(2.3994714,0,0,2.3994714,-1398.6429,-319.52869)"
       style="display:inline;fill:#cfbab0;fill-rule:nonzero;stroke:none"
       id=" path11292"
       d="m 612.07275,417.10827 v 52.189 l 14.379,15.222 v -63.58"
       inkscape:connector-curvature="0" />
    <path
       transform="matrix(2.3994714,0,0,2.3994714,-1398.6429,-319.52869)"
       style="display:inline;fill:#fcdbc6;fill-rule:nonzero;stroke:none"
       id=" path11294"
       d="m 633.70775,422.87127 -7.255,-1.931 v 63.578 l 7.255,-1.849"
       inkscape:connector-curvature="0" />
  </g>
  <g
     inkscape:groupmode="layer"
     id="layer3"
     inkscape:label="fonture"
     style="display:inline"
     transform="matrix(2.3994714,0,0,2.3994714,-1398.6429,-319.52869)" />
  <g
     inkscape:groupmode="layer"
     id="layer1"
     inkscape:label="agiuilles rail"
     style="display:inline"
     transform="matrix(2.3994714,0,0,2.3994714,-1398.6429,-319.52869)">
    <g
       id="g15821">
      <path
         sodipodi:nodetypes="ccccccccccc"
         inkscape:connector-curvature="0"
         d="m 586.59495,407.90727 c 0.887,4.078 18.34456,21.88483 20.38856,22.75283 2.043,0.869 5.04392,0.40624 5.04392,0.40624 l 213.54412,-50.10207 c 3.206,-0.301 3.198,-2.926 3.198,-2.926 l -0.01,-3.206 c -0.008,-2.624 -12.593,-19.204 -12.593,-19.204 -3.221,-4.946 -9.917,-1.719 -9.917,-1.719 l -208.031,41.256 c -8.739,2.528 -10.474,6.908 -11.635,8.951 -1.16,2.044 0.011,3.791 0.011,3.791"
         id=" path11300"
         style="display:inline;fill:#fcdbc6;fill-rule:nonzero;stroke:none"
         transform="translate(-4.0064612e-6)" />
      <path
         sodipodi:nodetypes="cccccccccc"
         inkscape:connector-curvature="0"
         d="m 586.59455,407.90727 c 0.887,4.078 14.8218,17.87263 16.0631,19.54333 0.31065,0.14096 3.26762,3.07297 4.64339,3.34946 0.30883,0.51162 2.40805,0.29737 3.24344,0.25049 1.48295,0.0158 2.23675,-0.0803 3.23599,-0.61712 -1.966,-3.907 -11.81192,-26.02919 -11.81192,-26.02919 -2.219,-4.765 -8.588,-7.111 -12.238,-4.745 -0.924,0.889 -1.575,1.766 -2.069,2.551 -0.365,0.901 -0.868,1.833 -1.441,2.768 -0.479,1.648 0.374,2.929 0.374,2.929"
         id=" path11376"
         style="display:inline;fill:#cfbab0;fill-rule:nonzero;stroke:none"
         transform="translate(-4.0064612e-6)" />
      <path
         transform="translate(-4.0064612e-6)"
         style="fill:#0040d9;fill-rule:nonzero;stroke:none"
         id=" path11380"
         d="m 819.485,377.614 -2.228,-3.537 c -0.361,-0.576 -1.205,-0.933 -1.873,-0.792 l -176.656,37.381 c -0.667,0.141 -0.945,0.745 -0.616,1.343 l 1.401,2.553 c 0.328,0.597 1.142,0.968 1.809,0.826 l 178.163,-38.26"
         inkscape:connector-curvature="0" />
      <path
         style="fill:#0040d9;fill-rule:nonzero;stroke:none"
         id=" path11378"
         d="m 813.647,368.105 -2.301,-3.252 c -0.395,-0.556 -1.262,-0.897 -1.928,-0.755 l -175.613,37.16 c -0.667,0.14 -0.945,0.745 -0.616,1.342 l 1.4,2.552 c 0.329,0.598 1.143,0.969 1.81,0.824 L 813.647,367.62"
         inkscape:connector-curvature="0"
         transform="translate(-4.0064612e-6)" />
      <g
         style="display:inline"
         transform="translate(-4.0064612e-6)"
         clip-path="url(#Clip12)"
         id="Copie de layer6">
        <path
           inkscape:connector-curvature="0"
           d="m 646.25275,415.37947 -8.384,-17.485 0.632,-0.171 c 0.123,-0.033 0.248,-0.078 0.372,-0.135 l -8e-4,8e-4 c 0.766,-0.35 1.199,-1.047 1.192,-1.634 0,-0.176 -0.035,-0.345 -0.109,-0.506 -0.216,-0.473 -0.736,-0.776 -1.397,-0.78 -0.301,0 -0.623,0.067 -0.936,0.211 h 8e-4 c -0.497,0.228 -0.858,0.602 -1.043,0.997 l -0.986,-0.465 c 0.303,-0.64 0.851,-1.188 1.572,-1.522 h 8e-4 c 0.454,-0.209 0.93,-0.31 1.391,-0.31 0.992,-0.004 1.957,0.484 2.386,1.413 0.143,0.308 0.21,0.637 0.21,0.962 -0.006,1.091 -0.721,2.112 -1.827,2.623 l -0.002,0.002 8e-4,-8e-4 c -0.176,0.081 -0.357,0.146 -0.541,0.196 l -0.142,-0.526 0.491,-0.235 8.101,16.894 -0.982,0.471"
           id=" path11302"
           style="fill:#0040d9;fill-rule:nonzero;stroke:none" />
        <path
           inkscape:connector-curvature="0"
           d="m 650.75195,414.41307 -8.445,-17.501 0.638,-0.169 c 0.123,-0.032 0.246,-0.076 0.366,-0.132 l 8e-4,-8e-4 c 0.763,-0.349 1.194,-1.043 1.188,-1.627 -8e-4,-0.176 -0.036,-0.344 -0.11,-0.505 -0.214,-0.47 -0.733,-0.772 -1.392,-0.776 -0.299,0 -0.62,0.066 -0.931,0.21 -0.494,0.227 -0.853,0.598 -1.039,0.993 l -0.985,-0.465 c 0.302,-0.638 0.848,-1.186 1.568,-1.518 0.453,-0.208 0.928,-0.309 1.387,-0.309 0.991,-0.004 1.953,0.483 2.382,1.408 0.142,0.309 0.209,0.637 0.209,0.962 -0.006,1.088 -0.719,2.106 -1.82,2.617 l 0.004,-0.002 -0.003,8e-4 c -0.181,0.084 -0.364,0.149 -0.547,0.197 l -0.139,-0.526 0.491,-0.237 8.159,16.906 -0.982,0.473"
           id=" path11304"
           style="fill:#0040d9;fill-rule:nonzero;stroke:none" />
        <path
           inkscape:connector-curvature="0"
           d="m 655.25115,413.44547 -8.503,-17.509 0.633,-0.173 c 0.124,-0.033 0.247,-0.078 0.366,-0.133 l 0.002,-8e-4 h 8e-4 c 0.762,-0.348 1.19,-1.039 1.184,-1.621 0,-0.176 -0.035,-0.343 -0.109,-0.504 -0.213,-0.467 -0.728,-0.768 -1.384,-0.771 -0.299,0 -0.618,0.066 -0.929,0.209 l -8e-4,8e-4 c -0.493,0.225 -0.851,0.596 -1.035,0.989 l -0.986,-0.465 c 0.302,-0.638 0.848,-1.184 1.567,-1.515 l -8e-4,8e-4 c 0.453,-0.209 0.926,-0.31 1.385,-0.31 0.988,-0.004 1.947,0.482 2.374,1.406 0.141,0.307 0.209,0.635 0.208,0.959 -0.006,1.085 -0.717,2.101 -1.817,2.61 l 0.002,-8e-4 c -0.179,0.084 -0.361,0.148 -0.54,0.197 l -0.143,-0.525 0.49,-0.238 8.216,16.918 -0.98,0.476"
           id=" path11306"
           style="fill:#0040d9;fill-rule:nonzero;stroke:none" />
        <path
           inkscape:connector-curvature="0"
           d="m 659.75015,412.47807 -8.566,-17.527 0.643,-0.169 c 0.121,-0.032 0.241,-0.075 0.361,-0.131 l 0.004,-0.002 -0.003,0.002 c 0.759,-0.347 1.186,-1.037 1.18,-1.615 0,-0.175 -0.035,-0.342 -0.108,-0.501 -0.213,-0.467 -0.727,-0.766 -1.381,-0.77 -0.297,0 -0.615,0.066 -0.925,0.208 h 8e-4 c -0.49,0.225 -0.848,0.596 -1.033,0.987 l -0.984,-0.466 c 0.301,-0.635 0.845,-1.18 1.56,-1.51 l 8e-4,-8e-4 c 0.451,-0.207 0.923,-0.307 1.38,-0.307 0.986,-0.004 1.943,0.48 2.37,1.402 0.142,0.307 0.209,0.634 0.209,0.958 -0.007,1.083 -0.717,2.096 -1.814,2.604 l -0.004,0.002 0.005,-0.002 c -0.176,0.081 -0.357,0.147 -0.543,0.196 l -0.138,-0.527 0.489,-0.239 8.275,16.93 -0.979,0.478"
           id=" path11308"
           style="fill:#0040d9;fill-rule:nonzero;stroke:none" />
        <path
           inkscape:connector-curvature="0"
           d="m 664.25075,411.51087 -8.623,-17.534 0.636,-0.173 c 0.123,-0.034 0.248,-0.079 0.371,-0.135 l -0.005,0.003 8e-4,-8e-4 c 0.755,-0.346 1.182,-1.034 1.175,-1.611 0,-0.173 -0.034,-0.339 -0.107,-0.498 -0.212,-0.463 -0.725,-0.762 -1.377,-0.766 -0.296,0 -0.613,0.065 -0.921,0.207 -0.49,0.226 -0.844,0.593 -1.027,0.982 l -0.986,-0.463 c 0.3,-0.635 0.843,-1.178 1.557,-1.508 0.45,-0.207 0.921,-0.307 1.377,-0.307 0.984,-0.004 1.94,0.479 2.366,1.399 0.141,0.306 0.208,0.632 0.208,0.954 -0.006,1.081 -0.714,2.092 -1.808,2.6 l -0.003,0.002 c -0.176,0.079 -0.354,0.143 -0.534,0.193 l -0.143,-0.526 0.489,-0.24 8.332,16.941 -0.978,0.481"
           id=" path11310"
           style="fill:#0040d9;fill-rule:nonzero;stroke:none" />
        <path
           inkscape:connector-curvature="0"
           d="m 668.74935,410.54347 -8.683,-17.55 0.642,-0.172 c 0.122,-0.033 0.244,-0.076 0.362,-0.13 0.753,-0.346 1.178,-1.03 1.171,-1.606 0,-0.173 -0.034,-0.338 -0.107,-0.496 l -0.005,-0.011 0.005,0.011 c -0.21,-0.46 -0.721,-0.759 -1.369,-0.762 -0.296,0 -0.612,0.065 -0.919,0.207 l -0.003,0.002 0.002,-8e-4 c -0.487,0.223 -0.841,0.589 -1.023,0.978 l -0.986,-0.465 c 0.299,-0.633 0.841,-1.175 1.555,-1.503 h -0.002 c 0.45,-0.207 0.92,-0.307 1.376,-0.307 0.98,-0.004 1.934,0.478 2.359,1.395 l 0.005,0.01 -0.005,-0.009 c 0.14,0.305 0.207,0.63 0.207,0.951 -0.006,1.079 -0.713,2.088 -1.804,2.595 -0.178,0.082 -0.359,0.146 -0.537,0.194 l -0.141,-0.527 0.488,-0.241 8.389,16.95404 -0.977,0.483"
           id=" path11312"
           style="fill:#0040d9;fill-rule:nonzero;stroke:none" />
        <path
           inkscape:connector-curvature="0"
           d="m 673.24815,409.57647 -8.742,-17.561 0.643,-0.174 c 0.118,-0.032 0.241,-0.076 0.363,-0.132 l -0.002,8e-4 c 0.75,-0.343 1.173,-1.025 1.167,-1.597 -8e-4,-0.173 -0.035,-0.337 -0.108,-0.495 -0.209,-0.46 -0.716,-0.756 -1.363,-0.76 -0.294,0 -0.609,0.065 -0.916,0.206 -0.485,0.223 -0.838,0.589 -1.02,0.977 l -0.985,-0.465 c 0.299,-0.632 0.839,-1.173 1.55,-1.501 0.448,-0.206 0.917,-0.306 1.371,-0.306 0.978,-0.004 1.929,0.477 2.353,1.393 0.141,0.305 0.207,0.63 0.207,0.951 -0.006,1.076 -0.712,2.082 -1.799,2.587 l -0.004,8e-4 h 8e-4 c -0.174,0.079 -0.352,0.144 -0.532,0.192 l -0.142,-0.526 0.488,-0.242 8.446,16.966 -0.976,0.485"
           id=" path11314"
           style="fill:#0040d9;fill-rule:nonzero;stroke:none" />
        <path
           inkscape:connector-curvature="0"
           d="m 677.74855,408.60967 -8.79996,-17.56904 0.638,-0.177 c 0.124,-0.035 0.247,-0.078 0.365,-0.133 l -8e-4,8e-4 c 0.748,-0.343 1.169,-1.023 1.163,-1.592 0,-0.171 -0.034,-0.335 -0.107,-0.492 l 0.005,0.01 -0.005,-0.011 c -0.208,-0.457 -0.714,-0.752 -1.358,-0.756 -0.294,0 -0.608,0.065 -0.913,0.206 l 0.008,-0.004 -0.009,0.004 c -0.483,0.221 -0.834,0.584 -1.016,0.97 l -0.985,-0.465 c 0.298,-0.629 0.836,-1.169 1.547,-1.496 l -8e-4,8e-4 c 0.447,-0.206 0.915,-0.305 1.369,-0.305 0.976,-0.004 1.925,0.476 2.348,1.39 h -8e-4 c 0.141,0.304 0.208,0.628 0.207,0.948 -0.006,1.074 -0.71,2.077 -1.795,2.581 l 0.007,-0.003 -0.008,0.003 c -0.177,0.081 -0.354,0.144 -0.529,0.193 l -0.145,-0.525 0.487,-0.244 8.503,16.977 -0.974,0.488"
           id=" path11316"
           style="fill:#0040d9;fill-rule:nonzero;stroke:none" />
        <path
           inkscape:connector-curvature="0"
           d="m 682.24835,407.64247 -8.861,-17.582 0.639,-0.177 c 0.127,-0.035 0.248,-0.078 0.363,-0.132 l 0.002,-8e-4 c 0.744,-0.34 1.164,-1.017 1.158,-1.584 -8e-4,-0.171 -0.035,-0.334 -0.107,-0.49 -0.207,-0.456 -0.712,-0.751 -1.353,-0.755 -0.292,0 -0.604,0.065 -0.908,0.205 l 0.006,-0.002 -0.006,0.002 c -0.482,0.221 -0.833,0.585 -1.013,0.968 l -0.986,-0.465 c 0.298,-0.628 0.836,-1.166 1.543,-1.493 l 0.006,-0.002 -0.006,0.003 c 0.445,-0.206 0.912,-0.305 1.364,-0.305 0.973,-0.004 1.921,0.475 2.343,1.388 0.14,0.303 0.206,0.627 0.206,0.946 -0.006,1.072 -0.708,2.072 -1.791,2.574 l 8e-4,-8e-4 h 8e-4 c -0.18,0.084 -0.359,0.146 -0.531,0.193 l -0.146,-0.525 0.487,-0.245 8.562,16.989 -0.973,0.491"
           id=" path11318"
           style="fill:#0040d9;fill-rule:nonzero;stroke:none" />
        <path
           inkscape:connector-curvature="0"
           d="m 686.74695,406.67587 -8.921,-17.599 0.647,-0.174 c 0.12,-0.033 0.239,-0.076 0.354,-0.13 l 0.002,-8e-4 0.002,-8e-4 c 0.742,-0.339 1.16,-1.014 1.153,-1.579 0,-0.17 -0.034,-0.332 -0.105,-0.487 l 0.005,0.01 -0.004,-0.01 c -0.208,-0.454 -0.71,-0.747 -1.349,-0.751 -0.291,0 -0.602,0.065 -0.906,0.204 -0.48,0.22 -0.829,0.582 -1.008,0.963 l -0.985,-0.465 c 0.295,-0.625 0.831,-1.163 1.539,-1.488 0.444,-0.204 0.909,-0.303 1.36,-0.303 0.971,-0.004 1.916,0.474 2.338,1.384 v 0 c 0.139,0.303 0.205,0.625 0.205,0.943 -0.006,1.069 -0.706,2.068 -1.787,2.569 l 8e-4,-8e-4 0.003,-8e-4 c -0.177,0.083 -0.356,0.147 -0.534,0.195 l -0.142,-0.526 0.486,-0.246 8.618,17.001 -0.971,0.493"
           id=" path11320"
           style="fill:#0040d9;fill-rule:nonzero;stroke:none" />
        <path
           inkscape:connector-curvature="0"
           d="m 691.24695,405.70827 -8.979,-17.609 0.645,-0.177 c 0.119,-0.032 0.241,-0.076 0.357,-0.13 l 0.007,-0.003 -0.006,0.003 c 0.74,-0.339 1.156,-1.01 1.149,-1.572 0,-0.17 -0.034,-0.332 -0.105,-0.487 -0.205,-0.452 -0.705,-0.744 -1.343,-0.748 -0.29,0 -0.6,0.064 -0.902,0.203 -0.479,0.22 -0.825,0.58 -1.006,0.962 l -0.984,-0.466 c 0.296,-0.625 0.83,-1.161 1.534,-1.485 0.444,-0.204 0.908,-0.303 1.358,-0.303 0.969,-0.004 1.913,0.472 2.333,1.382 0.139,0.301 0.205,0.624 0.205,0.942 -0.006,1.066 -0.705,2.061 -1.783,2.561 l 0.007,-0.003 -0.006,0.003 c -0.175,0.081 -0.353,0.144 -0.527,0.192 l -0.144,-0.525 0.485,-0.248 8.675,17.013 -0.97,0.495"
           id=" path11322"
           style="fill:#0040d9;fill-rule:nonzero;stroke:none" />
        <path
           inkscape:connector-curvature="0"
           d="m 695.74615,404.74067 -9.041,-17.623 0.648,-0.176 c 0.119,-0.032 0.238,-0.076 0.359,-0.13 h -0.002 v 8e-4 c 0.737,-0.337 1.151,-1.008 1.145,-1.568 0,-0.169 -0.034,-0.33 -0.105,-0.484 -0.204,-0.449 -0.702,-0.741 -1.337,-0.744 -0.289,0 -0.598,0.063 -0.898,0.202 -0.478,0.219 -0.824,0.578 -1.004,0.958 l -0.984,-0.466 c 0.295,-0.624 0.829,-1.158 1.533,-1.482 0.441,-0.203 0.904,-0.302 1.353,-0.302 0.966,-0.003 1.907,0.472 2.327,1.378 0.139,0.301 0.205,0.623 0.205,0.94 -0.007,1.064 -0.704,2.059 -1.779,2.557 l -0.003,8e-4 c -0.171,0.078 -0.346,0.142 -0.524,0.19 l -0.143,-0.526 0.485,-0.248 8.734,17.025 -0.969,0.497"
           id=" path11324"
           style="fill:#0040d9;fill-rule:nonzero;stroke:none" />
        <path
           inkscape:connector-curvature="0"
           d="m 700.98575,403.01087 -8.79204,-17.03704 0.484,-0.25 0.422,0.345 c -0.159,0.193 -0.259,0.326 -0.309,0.4 l -0.027,0.042 -0.007,0.012 -0.342,-0.182 h 0.379 c -0.01,0.17 -0.043,0.179 -0.037,0.182 l -0.342,-0.182 h 0.379 -0.523 l 0.342,-0.394 c 0.143,0.12 0.186,0.307 0.181,0.394 h -0.523 l 0.342,-0.394 -0.34,0.391 v -0.519 c 0.064,0 0.199,0.01 0.34,0.128 l -0.34,0.391 v -0.519 0.405 l -0.14,-0.383 c 0.011,-8e-4 0.028,-0.018 0.14,-0.022 v 0.405 l -0.14,-0.383 h 8e-4 l 0.018,-0.009 0.006,-0.003 -0.007,0.004 c 0.734,-0.336 1.147,-1.005 1.141,-1.563 0,-0.168 -0.033,-0.328 -0.104,-0.482 v 8e-4 c -0.204,-0.447 -0.7,-0.737 -1.332,-0.741 -0.288,0 -0.596,0.064 -0.895,0.202 l 0.01,-0.005 -0.011,0.005 c -0.476,0.218 -0.819,0.574 -0.997,0.953 l -0.986,-0.464 c 0.295,-0.623 0.827,-1.156 1.528,-1.479 l -0.01,0.005 0.01,-0.004 c 0.441,-0.204 0.903,-0.302 1.351,-0.302 0.964,-0.004 1.902,0.47 2.321,1.373 l 8e-4,8e-4 c 0.138,0.3 0.204,0.621 0.204,0.937 -0.007,1.062 -0.702,2.054 -1.775,2.552 l -8e-4,8e-4 -0.099,0.041 c -0.047,0.014 -0.097,0.04 -0.234,0.044 -0.078,0 -0.226,-0.013 -0.375,-0.139 -0.151,-0.127 -0.199,-0.325 -0.193,-0.428 0.007,-0.18 0.05,-0.24 0.078,-0.307 0.093,-0.177 0.218,-0.338 0.474,-0.655 l 0.525,-0.642 9.172,17.77404 -0.968,0.5"
           id=" path11326"
           style="fill:#0040d9;fill-rule:nonzero;stroke:none" />
        <path
           inkscape:connector-curvature="0"
           d="m 704.74595,402.80567 -9.158,-17.642 0.644,-0.181 c 0.123,-0.035 0.243,-0.078 0.359,-0.131 v 0 c 0.731,-0.334 1.143,-1 1.137,-1.556 0,-0.167 -0.034,-0.326 -0.104,-0.479 l 8e-4,8e-4 c -0.204,-0.446 -0.698,-0.735 -1.328,-0.738 -0.287,0 -0.593,0.063 -0.891,0.2 -0.476,0.219 -0.819,0.574 -0.995,0.95 l -0.986,-0.463 c 0.293,-0.623 0.826,-1.154 1.525,-1.476 0.44,-0.203 0.9,-0.301 1.347,-0.301 0.962,-0.003 1.898,0.47 2.317,1.371 v 8e-4 c 0.138,0.299 0.203,0.619 0.203,0.934 -0.006,1.059 -0.7,2.049 -1.77,2.546 l 0.003,-0.002 -0.004,0.002 c -0.174,0.08 -0.348,0.141 -0.519,0.19 l -0.147,-0.525 0.483,-0.251 8.85,17.048 -0.967,0.502"
           id=" path11328"
           style="fill:#0040d9;fill-rule:nonzero;stroke:none" />
        <path
           inkscape:connector-curvature="0"
           d="m 709.24475,401.83927 -9.22,-17.663 0.655,-0.176 c 0.115,-0.031 0.234,-0.074 0.35,-0.128 0.73,-0.333 1.14,-0.996 1.134,-1.549 -8e-4,-0.166 -0.034,-0.324 -0.104,-0.477 -0.202,-0.443 -0.695,-0.731 -1.323,-0.735 -0.285,0 -0.59,0.063 -0.887,0.2 -0.473,0.217 -0.816,0.572 -0.991,0.946 l -0.986,-0.463 c 0.293,-0.621 0.824,-1.151 1.522,-1.473 0.438,-0.202 0.897,-0.299 1.342,-0.299 0.96,-0.004 1.894,0.468 2.312,1.368 0.139,0.299 0.204,0.618 0.204,0.933 -0.006,1.057 -0.699,2.044 -1.766,2.539 -0.171,0.079 -0.347,0.142 -0.524,0.19 l -0.141,-0.526 0.483,-0.252 8.906,17.061 -0.966,0.504"
           id=" path11330"
           style="fill:#0040d9;fill-rule:nonzero;stroke:none" />
        <path
           inkscape:connector-curvature="0"
           d="m 713.74455,400.87167 -9.282,-17.675 0.658,-0.177 c 0.116,-0.032 0.234,-0.073 0.351,-0.127 l -0.003,8e-4 0.002,-8e-4 c 0.726,-0.332 1.134,-0.993 1.128,-1.544 0,-0.166 -0.033,-0.324 -0.103,-0.476 l 8e-4,8e-4 c -0.202,-0.441 -0.692,-0.728 -1.317,-0.731 -0.285,0 -0.589,0.063 -0.885,0.199 -0.471,0.217 -0.813,0.57 -0.988,0.943 l -0.985,-0.466 c 0.293,-0.618 0.823,-1.145 1.517,-1.466 0.438,-0.202 0.897,-0.3 1.341,-0.3 0.957,-0.003 1.889,0.467 2.306,1.364 v 8e-4 c 0.138,0.299 0.203,0.617 0.202,0.931 -0.006,1.055 -0.696,2.039 -1.761,2.533 l -8e-4,8e-4 c -0.172,0.079 -0.347,0.142 -0.522,0.189 l -0.142,-0.526 0.483,-0.253 8.965,17.073 -0.965,0.506"
           id=" path11332"
           style="fill:#0040d9;fill-rule:nonzero;stroke:none" />
        <path
           inkscape:connector-curvature="0"
           d="m 718.24395,399.90407 -9.343,-17.692 0.665,-0.174 c 0.112,-0.029 0.229,-0.072 0.345,-0.125 l -0.005,0.002 0.006,-0.003 c 0.723,-0.329 1.129,-0.987 1.123,-1.535 0,-0.165 -0.033,-0.323 -0.103,-0.474 -0.2,-0.44 -0.688,-0.726 -1.311,-0.729 -0.283,0 -0.586,0.062 -0.881,0.198 -0.469,0.216 -0.809,0.568 -0.984,0.94 l -0.985,-0.466 c 0.292,-0.615 0.819,-1.143 1.514,-1.463 0.436,-0.201 0.893,-0.299 1.336,-0.299 0.955,-0.003 1.886,0.467 2.301,1.363 0.137,0.298 0.203,0.616 0.202,0.93 -0.006,1.052 -0.694,2.033 -1.756,2.525 l -0.005,0.002 0.006,-0.002 c -0.172,0.079 -0.348,0.143 -0.528,0.19 l -0.138,-0.527 0.482,-0.254 9.023,17.085 -0.964,0.508"
           id=" path11334"
           style="fill:#0040d9;fill-rule:nonzero;stroke:none" />
        <path
           inkscape:connector-curvature="0"
           d="m 722.74375,398.93647 -9.4,-17.7 0.659,-0.178 c 0.116,-0.031 0.235,-0.074 0.352,-0.127 l 0.224,0.497 -0.229,-0.494 c 0.722,-0.331 1.127,-0.987 1.12,-1.533 0,-0.165 -0.032,-0.321 -0.102,-0.472 -0.199,-0.437 -0.683,-0.721 -1.304,-0.724 -0.283,-8e-4 -0.586,0.062 -0.881,0.198 -0.465,0.213 -0.804,0.565 -0.978,0.935 l -0.985,-0.465 c 0.29,-0.615 0.816,-1.141 1.508,-1.46 0.436,-0.201 0.893,-0.298 1.336,-0.298 0.952,-0.003 1.88,0.465 2.294,1.358 0.137,0.298 0.202,0.615 0.202,0.928 -0.006,1.05 -0.694,2.029 -1.752,2.522 l -0.003,8e-4 -0.002,8e-4 c -0.169,0.076 -0.342,0.138 -0.516,0.185 l -0.142,-0.526 0.481,-0.256 9.08,17.097 -0.962,0.511"
           id=" path11336"
           style="fill:#0040d9;fill-rule:nonzero;stroke:none" />
        <path
           inkscape:connector-curvature="0"
           d="m 727.24255,397.96987 -9.461,-17.713 0.663,-0.178 c 0.116,-0.031 0.231,-0.073 0.345,-0.126 0.719,-0.328 1.123,-0.983 1.116,-1.527 0,-0.163 -0.032,-0.319 -0.1,-0.468 v 0.002 c -0.2,-0.437 -0.683,-0.72 -1.301,-0.723 -0.281,0 -0.583,0.062 -0.876,0.198 l 0.003,-0.002 -0.004,0.002 c -0.464,0.212 -0.799,0.56 -0.975,0.932 l -0.985,-0.466 c 0.291,-0.613 0.815,-1.139 1.506,-1.456 l -0.004,8e-4 0.002,-8e-4 c 0.436,-0.2 0.892,-0.298 1.333,-0.298 0.95,-0.003 1.876,0.464 2.29,1.355 l -0.002,-0.004 0.003,0.006 c 0.136,0.295 0.2,0.611 0.2,0.922 -0.006,1.048 -0.692,2.026 -1.749,2.517 -0.17,0.078 -0.344,0.141 -0.52,0.188 l -0.141,-0.526 0.48,-0.257 9.138,17.109 -0.961,0.513"
           id=" path11338"
           style="fill:#0040d9;fill-rule:nonzero;stroke:none" />
        <path
           inkscape:connector-curvature="0"
           d="m 731.74235,397.00307 -9.519,-17.722 0.66,-0.181 c 0.115,-0.031 0.231,-0.073 0.345,-0.126 l 0.002,-8e-4 c 0.715,-0.327 1.117,-0.977 1.111,-1.518 -8e-4,-0.163 -0.033,-0.318 -0.101,-0.467 -0.198,-0.434 -0.679,-0.716 -1.296,-0.72 -0.28,0 -0.579,0.062 -0.871,0.196 -0.463,0.213 -0.8,0.562 -0.973,0.929 l -0.985,-0.465 c 0.29,-0.612 0.814,-1.136 1.503,-1.453 0.433,-0.2 0.887,-0.296 1.326,-0.296 0.949,-0.004 1.873,0.463 2.285,1.354 0.137,0.295 0.201,0.611 0.201,0.922 -0.006,1.045 -0.69,2.019 -1.744,2.508 l 0.002,-8e-4 c -0.172,0.08 -0.346,0.142 -0.518,0.189 l -0.144,-0.525 0.48,-0.258 9.195,17.12 -0.959,0.515"
           id=" path11340"
           style="fill:#0040d9;fill-rule:nonzero;stroke:none" />
        <path
           inkscape:connector-curvature="0"
           d="m 736.24155,396.03567 -9.581,-17.741 0.668,-0.177 c 0.11,-0.029 0.226,-0.072 0.344,-0.126 l -0.004,0.002 0.003,-8e-4 c 0.712,-0.325 1.112,-0.973 1.106,-1.513 0,-0.162 -0.032,-0.316 -0.101,-0.464 -0.196,-0.431 -0.676,-0.713 -1.291,-0.716 -0.279,0 -0.578,0.061 -0.869,0.195 -0.462,0.213 -0.795,0.558 -0.966,0.924 l -0.987,-0.463 c 0.289,-0.612 0.812,-1.134 1.498,-1.45 0.433,-0.2 0.885,-0.296 1.324,-0.296 0.947,-0.003 1.869,0.462 2.281,1.35 0.136,0.295 0.201,0.61 0.2,0.92 -0.006,1.043 -0.688,2.016 -1.739,2.502 l -8e-4,8e-4 c -0.168,0.077 -0.341,0.141 -0.519,0.188 l -0.14,-0.527 0.48,-0.258 9.252,17.132 -0.958,0.518"
           id=" path11342"
           style="fill:#0040d9;fill-rule:nonzero;stroke:none" />
        <path
           inkscape:connector-curvature="0"
           d="m 740.74035,395.06927 -9.638,-17.752 0.667,-0.179 c 0.11,-0.03 0.227,-0.072 0.346,-0.126 l -8e-4,8e-4 -0.004,0.002 c 0.71,-0.325 1.108,-0.971 1.102,-1.508 0,-0.161 -0.033,-0.315 -0.1,-0.463 -0.196,-0.43 -0.672,-0.709 -1.284,-0.713 -0.278,0 -0.575,0.062 -0.865,0.195 l 0.003,-8e-4 -0.004,0.002 c -0.46,0.21 -0.793,0.555 -0.963,0.92 l -0.986,-0.463 c 0.287,-0.611 0.808,-1.133 1.495,-1.448 l -0.003,0.002 0.002,-8e-4 c 0.431,-0.199 0.883,-0.295 1.321,-0.295 0.944,-0.004 1.863,0.46 2.273,1.346 0.136,0.295 0.2,0.609 0.2,0.919 -0.006,1.041 -0.686,2.01 -1.734,2.497 l -0.003,8e-4 -0.002,8e-4 c -0.167,0.075 -0.337,0.137 -0.51,0.184 l -0.142,-0.526 0.479,-0.26 9.308,17.145 -0.957,0.519"
           id=" path11344"
           style="fill:#0040d9;fill-rule:nonzero;stroke:none" />
        <path
           inkscape:connector-curvature="0"
           d="m 745.15975,393.95547 -10.179,-18.64596 1.528,0.739 0.021,0.008 -0.016,0.068 v -0.069 l 0.016,8e-4 -0.016,0.068 v -0.069 0.058 l -0.017,-0.057 0.017,-8e-4 v 0.058 l -0.017,-0.057 0.055,-0.023 0.008,-0.003 -0.009,0.004 c 0.707,-0.324 1.104,-0.967 1.097,-1.5 0,-0.161 -0.032,-0.315 -0.1,-0.462 -0.195,-0.428 -0.669,-0.707 -1.277,-0.711 -0.277,0 -0.574,0.062 -0.863,0.195 -0.459,0.211 -0.79,0.554 -0.962,0.918 l -0.984,-0.466 c 0.288,-0.607 0.807,-1.126 1.49,-1.441 0.43,-0.199 0.881,-0.295 1.319,-0.295 0.94,-0.004 1.858,0.46 2.267,1.344 0.135,0.294 0.2,0.608 0.2,0.918 -0.007,1.038 -0.686,2.004 -1.731,2.489 l -0.002,8e-4 h 8e-4 c -0.095,0.043 -0.266,0.12 -0.492,0.12 -0.159,8e-4 -0.327,-0.041 -0.478,-0.115 l 0.236,-0.491 0.479,-0.261 9.366,17.156 -0.957,0.522"
           id=" path11346"
           style="fill:#0040d9;fill-rule:nonzero;stroke:none" />
        <path
           inkscape:connector-curvature="0"
           d="m 749.73975,393.13427 -9.756,-17.771 0.663,-0.184 c 0.116,-0.032 0.233,-0.074 0.345,-0.125 0.703,-0.32 1.098,-0.96 1.092,-1.493 0,-0.161 -0.032,-0.314 -0.1,-0.461 -0.193,-0.425 -0.665,-0.702 -1.273,-0.706 -0.275,0 -0.571,0.061 -0.859,0.193 -0.456,0.21 -0.786,0.552 -0.957,0.915 l -0.985,-0.465 c 0.287,-0.608 0.806,-1.126 1.487,-1.439 0.43,-0.198 0.879,-0.293 1.314,-0.293 0.939,-0.004 1.855,0.458 2.263,1.34 0.135,0.293 0.2,0.607 0.2,0.916 -0.007,1.036 -0.683,2.002 -1.728,2.484 -0.17,0.077 -0.34,0.138 -0.508,0.184 l -0.145,-0.525 0.477,-0.262 9.425,17.168 -0.955,0.524"
           id=" path11348"
           style="fill:#0040d9;fill-rule:nonzero;stroke:none" />
        <path
           inkscape:connector-curvature="0"
           d="m 754.23835,392.16647 -9.82,-17.794 0.677,-0.177 c 0.108,-0.028 0.223,-0.07 0.335,-0.122 l -0.002,0.002 8e-4,-8e-4 c 0.703,-0.324 1.096,-0.962 1.09,-1.49 0,-0.159 -0.032,-0.311 -0.098,-0.456 -0.193,-0.424 -0.664,-0.7 -1.268,-0.704 -0.275,0 -0.569,0.061 -0.855,0.193 -0.456,0.209 -0.786,0.551 -0.955,0.91 l -0.985,-0.465 c 0.287,-0.604 0.804,-1.121 1.484,-1.435 0.428,-0.197 0.876,-0.292 1.311,-0.292 0.936,-0.004 1.849,0.457 2.257,1.337 0.135,0.293 0.199,0.605 0.199,0.912 -0.007,1.033 -0.683,1.993 -1.721,2.478 l -0.002,8e-4 c -0.167,0.077 -0.339,0.14 -0.515,0.186 l -0.138,-0.527 0.477,-0.263 9.482,17.18 -0.954,0.527"
           id=" path11350"
           style="fill:#0040d9;fill-rule:nonzero;stroke:none" />
        <path
           inkscape:connector-curvature="0"
           d="m 758.73875,391.19867 -9.879,-17.801 0.673,-0.181 c 0.11,-0.029 0.226,-0.071 0.341,-0.124 l -0.002,8e-4 -0.002,8e-4 c 0.7,-0.32 1.092,-0.956 1.086,-1.482 0,-0.159 -0.032,-0.31 -0.099,-0.455 v -8e-4 c -0.192,-0.421 -0.661,-0.697 -1.263,-0.7 -0.273,0 -0.566,0.06 -0.851,0.191 -0.453,0.208 -0.781,0.55 -0.949,0.908 l -0.986,-0.465 c 0.285,-0.602 0.8,-1.119 1.48,-1.432 0.426,-0.197 0.873,-0.292 1.306,-0.292 0.934,-0.003 1.846,0.456 2.252,1.334 v 0 c 0.135,0.292 0.2,0.604 0.199,0.912 -0.006,1.031 -0.681,1.99 -1.718,2.471 l -0.002,8e-4 -0.002,8e-4 c -0.163,0.074 -0.333,0.136 -0.507,0.183 l -0.141,-0.526 0.476,-0.264 9.541,17.192 -0.953,0.528"
           id=" path11352"
           style="fill:#0040d9;fill-rule:nonzero;stroke:none" />
        <path
           inkscape:connector-curvature="0"
           d="m 763.23795,390.23167 -9.939,-17.815 0.676,-0.18 c 0.112,-0.03 0.223,-0.07 0.336,-0.122 0.697,-0.319 1.087,-0.953 1.081,-1.478 0,-0.158 -0.032,-0.308 -0.098,-0.452 l 8e-4,8e-4 c -0.192,-0.42 -0.659,-0.695 -1.258,-0.698 -0.273,0 -0.565,0.06 -0.849,0.191 -0.451,0.208 -0.779,0.547 -0.945,0.904 l -0.986,-0.463 c 0.284,-0.605 0.8,-1.118 1.474,-1.43 0.427,-0.197 0.873,-0.292 1.306,-0.292 0.931,-0.003 1.84,0.455 2.247,1.331 l -0.009,-0.019 0.009,0.02 c 0.134,0.291 0.198,0.601 0.197,0.907 -0.006,1.029 -0.678,1.987 -1.714,2.467 -0.166,0.077 -0.336,0.139 -0.51,0.185 l -0.141,-0.526 0.476,-0.265 9.598,17.20304 -0.952,0.531"
           id=" path11354"
           style="fill:#0040d9;fill-rule:nonzero;stroke:none" />
        <path
           inkscape:connector-curvature="0"
           d="m 767.73675,389.26447 -9.994,-17.821 0.669,-0.185 c 0.116,-0.033 0.228,-0.073 0.339,-0.124 0.693,-0.317 1.082,-0.947 1.076,-1.469 -8e-4,-0.158 -0.032,-0.308 -0.098,-0.452 -0.19,-0.417 -0.654,-0.691 -1.251,-0.694 -0.271,0 -0.562,0.06 -0.845,0.19 -0.45,0.206 -0.776,0.544 -0.944,0.901 l -0.985,-0.466 c 0.285,-0.6 0.798,-1.114 1.473,-1.424 0.425,-0.196 0.87,-0.291 1.301,-0.291 0.929,-0.003 1.836,0.454 2.24,1.328 0.134,0.291 0.198,0.601 0.198,0.908 -0.006,1.026 -0.677,1.98 -1.708,2.459 -0.169,0.077 -0.338,0.137 -0.505,0.184 l -0.145,-0.525 0.475,-0.267 9.654,17.215 -0.95,0.533"
           id=" path11356"
           style="fill:#0040d9;fill-rule:nonzero;stroke:none" />
        <path
           inkscape:connector-curvature="0"
           d="m 772.23695,388.29687 -10.058,-17.838 0.677,-0.183 c 0.111,-0.029 0.222,-0.07 0.338,-0.122 h -0.002 l -8e-4,8e-4 c 0.691,-0.316 1.079,-0.945 1.072,-1.465 0,-0.157 -0.031,-0.305 -0.096,-0.448 v 8e-4 c -0.19,-0.416 -0.653,-0.689 -1.247,-0.692 -0.27,0 -0.56,0.06 -0.842,0.19 -0.448,0.206 -0.774,0.543 -0.939,0.896 l -0.986,-0.465 c 0.284,-0.599 0.797,-1.11 1.469,-1.42 0.424,-0.196 0.868,-0.29 1.298,-0.291 0.927,-0.003 1.831,0.454 2.236,1.325 l 8e-4,8e-4 c 0.133,0.289 0.196,0.598 0.196,0.903 -0.006,1.024 -0.676,1.977 -1.706,2.454 l -8e-4,8e-4 -0.003,8e-4 c -0.163,0.074 -0.33,0.136 -0.503,0.182 l -0.142,-0.526 0.475,-0.267 9.713,17.227 -0.949,0.535"
           id=" path11358"
           style="fill:#0040d9;fill-rule:nonzero;stroke:none" />
        <path
           inkscape:connector-curvature="0"
           d="m 776.73635,387.32967 -10.119,-17.853 0.682,-0.181 c 0.107,-0.029 0.22,-0.069 0.332,-0.121 l 0.002,-8e-4 -0.004,0.002 c 0.689,-0.315 1.075,-0.941 1.068,-1.458 0,-0.156 -0.031,-0.304 -0.096,-0.447 -0.189,-0.414 -0.649,-0.685 -1.241,-0.688 -0.27,0 -0.558,0.059 -0.839,0.189 -0.447,0.205 -0.77,0.54 -0.934,0.892 l -0.986,-0.464 c 0.282,-0.598 0.793,-1.108 1.464,-1.418 0.423,-0.194 0.866,-0.289 1.295,-0.289 0.925,-0.003 1.827,0.452 2.23,1.322 0.133,0.289 0.197,0.598 0.197,0.903 -0.007,1.021 -0.674,1.971 -1.701,2.447 l -0.004,0.002 0.002,-8e-4 c -0.164,0.075 -0.333,0.137 -0.505,0.183 l -0.14,-0.527 0.474,-0.268 9.77,17.239 -0.947,0.537"
           id=" path11360"
           style="fill:#0040d9;fill-rule:nonzero;stroke:none" />
        <path
           inkscape:connector-curvature="0"
           d="m 781.23475,386.36227 -10.174,-17.86 0.677,-0.185 c 0.112,-0.031 0.223,-0.071 0.332,-0.121 0.686,-0.314 1.07,-0.938 1.064,-1.453 -8e-4,-0.155 -0.031,-0.302 -0.096,-0.444 -0.188,-0.411 -0.646,-0.681 -1.236,-0.685 -0.268,0 -0.555,0.059 -0.835,0.188 -0.444,0.204 -0.766,0.538 -0.932,0.891 l -0.985,-0.467 c 0.283,-0.595 0.792,-1.105 1.461,-1.413 0.421,-0.194 0.863,-0.288 1.291,-0.288 0.923,-0.004 1.823,0.45 2.225,1.319 0.133,0.288 0.196,0.596 0.196,0.899 -0.006,1.019 -0.672,1.966 -1.697,2.442 -0.165,0.076 -0.333,0.137 -0.5,0.182 l -0.144,-0.525 0.473,-0.27 9.827,17.251 -0.947,0.539"
           id=" path11362"
           style="fill:#0040d9;fill-rule:nonzero;stroke:none" />
        <path
           inkscape:connector-curvature="0"
           d="m 785.73415,385.39467 -10.233,-17.871 0.677,-0.187 c 0.108,-0.03 0.222,-0.071 0.335,-0.122 l -0.002,8e-4 h -0.002 c 0.684,-0.313 1.066,-0.934 1.06,-1.446 0,-0.154 -0.031,-0.301 -0.096,-0.442 -0.187,-0.41 -0.643,-0.678 -1.23,-0.682 -0.267,0 -0.553,0.059 -0.832,0.188 l -0.003,8e-4 h 8e-4 c -0.441,0.201 -0.761,0.534 -0.925,0.883 l -0.986,-0.464 c 0.281,-0.594 0.788,-1.104 1.459,-1.41 l 0.002,-8e-4 -0.004,8e-4 c 0.421,-0.193 0.861,-0.287 1.288,-0.287 0.919,-0.004 1.817,0.449 2.219,1.314 0.133,0.288 0.197,0.596 0.196,0.899 -0.006,1.017 -0.671,1.961 -1.692,2.435 l -8e-4,8e-4 -0.003,8e-4 c -0.161,0.073 -0.327,0.134 -0.495,0.181 l -0.145,-0.526 0.473,-0.27 9.885,17.262 -0.946,0.541"
           id=" path11364"
           style="fill:#0040d9;fill-rule:nonzero;stroke:none" />
        <path
           inkscape:connector-curvature="0"
           d="m 790.23475,384.42827 -10.293,-17.884 0.678,-0.187 c 0.11,-0.031 0.221,-0.071 0.331,-0.122 0.68,-0.31 1.06,-0.928 1.054,-1.439 0,-0.154 -0.031,-0.3 -0.096,-0.44 -0.185,-0.408 -0.638,-0.675 -1.223,-0.679 -0.266,0 -0.551,0.059 -0.829,0.187 -0.442,0.203 -0.761,0.534 -0.925,0.882 l -0.985,-0.465 c 0.281,-0.593 0.788,-1.1 1.455,-1.407 0.419,-0.192 0.858,-0.286 1.284,-0.286 0.917,-0.004 1.813,0.448 2.213,1.312 0.133,0.287 0.196,0.594 0.195,0.896 -0.006,1.014 -0.668,1.957 -1.688,2.429 -0.164,0.076 -0.33,0.136 -0.497,0.182 l -0.144,-0.525 0.472,-0.272 9.942,17.274 -0.944,0.544"
           id=" path11366"
           style="fill:#0040d9;fill-rule:nonzero;stroke:none" />
        <path
           inkscape:connector-curvature="0"
           d="m 794.73375,383.46127 -10.356,-17.903 0.686,-0.184 c 0.11,-0.029 0.219,-0.068 0.327,-0.118 0.678,-0.31 1.057,-0.926 1.051,-1.434 -8e-4,-0.153 -0.031,-0.298 -0.095,-0.438 -0.186,-0.406 -0.636,-0.672 -1.219,-0.675 -0.266,0 -0.55,0.058 -0.827,0.186 -0.439,0.2 -0.756,0.531 -0.918,0.877 l -0.986,-0.463 c 0.278,-0.592 0.784,-1.099 1.449,-1.404 0.418,-0.192 0.857,-0.286 1.282,-0.286 0.915,-0.004 1.808,0.447 2.208,1.309 0.132,0.287 0.195,0.593 0.195,0.894 -0.006,1.012 -0.668,1.951 -1.683,2.424 -0.168,0.077 -0.335,0.136 -0.502,0.181 l -0.141,-0.527 0.472,-0.272 10,17.287 -0.943,0.546"
           id=" path11368"
           style="fill:#0040d9;fill-rule:nonzero;stroke:none" />
        <path
           inkscape:connector-curvature="0"
           d="m 799.23395,382.49327 -10.416,-17.914 0.688,-0.184 c 0.107,-0.029 0.214,-0.068 0.323,-0.119 h 8e-4 c 0.676,-0.309 1.053,-0.922 1.047,-1.427 0,-0.153 -0.031,-0.297 -0.094,-0.436 -0.184,-0.404 -0.633,-0.669 -1.214,-0.673 -0.264,0 -0.547,0.058 -0.822,0.185 -0.439,0.202 -0.755,0.53 -0.918,0.876 l -0.984,-0.466 c 0.279,-0.589 0.782,-1.093 1.446,-1.4 0.418,-0.191 0.854,-0.284 1.278,-0.284 0.913,-0.004 1.805,0.445 2.203,1.307 0.132,0.285 0.195,0.59 0.194,0.891 -0.006,1.009 -0.666,1.946 -1.68,2.416 h 0.002 c -0.163,0.075 -0.33,0.137 -0.501,0.182 l -0.14,-0.526 0.471,-0.274 10.057,17.298 -0.941,0.548"
           id=" path11370"
           style="fill:#0040d9;fill-rule:nonzero;stroke:none" />
        <path
           inkscape:connector-curvature="0"
           d="m 803.73275,381.52547 -10.474,-17.922 0.683,-0.188 c 0.112,-0.031 0.223,-0.071 0.334,-0.121 l 0.223,0.497 -0.228,-0.494 c 0.672,-0.307 1.048,-0.919 1.042,-1.423 -8e-4,-0.152 -0.031,-0.296 -0.094,-0.434 -0.183,-0.402 -0.631,-0.666 -1.21,-0.669 -0.263,0 -0.545,0.058 -0.82,0.184 -0.434,0.199 -0.748,0.526 -0.91,0.871 l -0.986,-0.464 c 0.278,-0.589 0.781,-1.093 1.441,-1.397 0.417,-0.191 0.852,-0.284 1.275,-0.284 0.911,-0.003 1.801,0.445 2.199,1.302 0.132,0.286 0.194,0.591 0.194,0.891 -0.006,1.007 -0.663,1.944 -1.675,2.412 l -0.002,8e-4 -0.003,0.002 c -0.162,0.072 -0.326,0.13 -0.49,0.176 l -0.145,-0.525 0.47,-0.275 10.117,17.31 -0.94,0.55"
           id=" path11372"
           style="fill:#0040d9;fill-rule:nonzero;stroke:none" />
        <path
           inkscape:connector-curvature="0"
           d="m 808.23175,380.55867 -10.534,-17.938 0.69,-0.186 c 0.108,-0.03 0.214,-0.068 0.319,-0.117 l 0.002,-8e-4 0.002,-8e-4 c 0.67,-0.305 1.043,-0.913 1.037,-1.413 0,-0.152 -0.03,-0.295 -0.094,-0.433 v -8e-4 c -0.182,-0.4 -0.626,-0.662 -1.201,-0.666 -0.263,0 -0.544,0.058 -0.818,0.185 -0.434,0.198 -0.746,0.522 -0.908,0.867 l -0.985,-0.465 c 0.277,-0.588 0.779,-1.09 1.439,-1.393 0.414,-0.19 0.85,-0.283 1.272,-0.283 0.907,-0.004 1.795,0.443 2.191,1.3 l -8e-4,-8e-4 c 0.132,0.285 0.195,0.59 0.195,0.89 -0.007,1.004 -0.663,1.936 -1.672,2.403 l 0.003,-8e-4 c -0.164,0.077 -0.331,0.137 -0.497,0.181 l -0.142,-0.526 0.47,-0.275 10.172,17.322 -0.94,0.552"
           id=" path11374"
           style="fill:#0040d9;fill-rule:nonzero;stroke:none" />
        <path
           inkscape:connector-curvature="0"
           d="m 726.41575,366.91327 -11.314,-11.11"
           id=" path11398"
           style="fill:#ff4c66;fill-rule:nonzero;stroke:none" />
        <path
           inkscape:connector-curvature="0"
           d="m 726.03375,367.30127 -11.314,-11.109 c -0.215,-0.211 -0.218,-0.556 -0.007,-0.77 0.211,-0.215 0.556,-0.218 0.77,-0.007 l 11.314,11.109 c 0.215,0.211 0.218,0.556 0.007,0.77 -0.21,0.215 -0.555,0.218 -0.77,0.007 z"
           id=" path11400"
           style="fill:#ffffff;fill-rule:nonzero;stroke:none" />
        <path
           inkscape:connector-curvature="0"
           d="m 699.54775,372.67627 -3.316,25.038"
           id=" path11402"
           style="fill:#ff4c66;fill-rule:nonzero;stroke:none" />
        <path
           inkscape:connector-curvature="0"
           d="m 637.89175,414.52127 c 0.565,1.264 0.129,2.686 -0.969,3.176 -1.098,0.488 -2.444,-0.141 -3.009,-1.405 -0.561,-1.263 -0.13,-2.685 0.968,-3.174 1.099,-0.49 2.447,0.137 3.01,1.403"
           id=" path11406"
           style="fill:#0040d9;fill-rule:nonzero;stroke:none" />
        <path
           inkscape:connector-curvature="0"
           d="m 618.37175,418.71627 c 0.565,1.264 0.131,2.686 -0.967,3.176 -1.1,0.489 -2.446,-0.14 -3.009,-1.404 -0.563,-1.264 -0.131,-2.686 0.966,-3.175 1.099,-0.49 2.447,0.138 3.01,1.403 z"
           id=" path11408"
           style="fill:#0040d9;fill-rule:nonzero;stroke:none" />
        <path
           inkscape:connector-curvature="0"
           d="m 631.38575,415.92027 c 0.564,1.263 0.13,2.685 -0.969,3.175 -1.099,0.489 -2.445,-0.14 -3.009,-1.405 -0.561,-1.264 -0.13,-2.685 0.967,-3.175 1.1,-0.489 2.447,0.139 3.011,1.405 z"
           id=" path11410"
           style="fill:#0040d9;fill-rule:nonzero;stroke:none" />
        <path
           inkscape:connector-curvature="0"
           d="m 624.87875,417.31827 c 0.565,1.263 0.13,2.685 -0.968,3.175 -1.099,0.489 -2.445,-0.139 -3.01,-1.404 -0.561,-1.264 -0.13,-2.686 0.968,-3.175 1.1,-0.49 2.447,0.138 3.01,1.404 z"
           id=" path11412"
           style="fill:#0040d9;fill-rule:nonzero;stroke:none" />
      </g>
    </g>
  </g>
  <g
     inkscape:groupmode="layer"
     id="layer2"
     inkscape:label="chariot"
     style="display:inline"
     transform="matrix(2.3994714,0,0,2.3994714,-1398.6429,-319.52869)">
    <g
       id="g15768">
      <path
         transform="translate(-4.0064612e-6)"
         style="fill:#facc1a;fill-rule:nonzero;stroke:none"
         id=" path11386"
         d="m 678.506,372.553 -14.456,2.912 10.542,8.048 12.859,-2.637 v 6.011 l 5.607,10.338 44.777,-9.397 -7.055,-22.854 -12.011,-10.912 -6.842,1.312 -3.938,10.329 -10.432,1.843 -8.058,-7.748 -6.521,1.062 -4.472,11.693 8.945,8.323"
         inkscape:connector-curvature="0" />
      <path
         transform="translate(-4.0064612e-6)"
         style="fill:#facc1a;fill-rule:nonzero;stroke:none"
         id=" path11390"
         d="m 682.978,360.86 13.396,11.387 5.681,-0.968 -4.499,-3.733"
         inkscape:connector-curvature="0" />
      <path
         transform="translate(-4.0064612e-6)"
         style="fill:#ffffff;fill-rule:nonzero;stroke:none"
         id=" path11404"
         d="m 696.914,372.259 -3.316,25.038 c -0.04,0.298 -0.313,0.508 -0.612,0.469 -0.298,-0.04 -0.508,-0.314 -0.468,-0.612 l 3.316,-25.038 c 0.04,-0.298 0.314,-0.508 0.612,-0.468 0.298,0.039 0.508,0.313 0.468,0.611"
         inkscape:connector-curvature="0" />
      <path
         transform="translate(-4.0064612e-6)"
         style="fill:#ffffff;fill-rule:nonzero;stroke:none"
         id=" path11396"
         d="M 702.6,371.21804 V 384.929 l 20.097,-4.323 v -14.18296 c 0,-0.259 0.183,-0.483 0.438,-0.534 l 7.539,-1.509 c 0.295,-0.059 0.582,0.133 0.641,0.428 0.059,0.295 -0.132,0.582 -0.427,0.641 l -7.101,1.421 V 381.046 c 0,0.257 -0.18,0.479 -0.431,0.533 l -21.186,4.557 c -0.162,0.035 -0.329,-0.005 -0.457,-0.109 -0.129,-0.104 -0.203,-0.258 -0.203,-0.424 v -14.38496 c 0,-0.301 0.244,-0.545 0.545,-0.545 0.301,0 0.545,0.244 0.545,0.545"
         inkscape:connector-curvature="0" />
      <path
         transform="translate(-4.0064612e-6)"
         style="fill:#ffffff;fill-rule:nonzero;stroke:none"
         id=" path11392"
         d="m 683.331,360.44404 13.203,11.22296 4.261,-0.727 -3.586,-2.97496 c -0.232,-0.193 -0.264,-0.536 -0.072,-0.768 0.192,-0.231 0.536,-0.263 0.767,-0.071 l 4.499,3.733 c 0.164,0.136 0.233,0.354 0.178,0.56 -0.055,0.206 -0.224,0.36 -0.435,0.396 l -5.68,0.968 c -0.159,0.027 -0.321,-0.017 -0.444,-0.122 l -13.396,-11.387 c -0.23,-0.195 -0.257,-0.538 -0.063,-0.768 0.195,-0.229 0.539,-0.257 0.768,-0.062"
         inkscape:connector-curvature="0" />
      <path
         transform="translate(-4.0064612e-6)"
         style="fill:#facc1a;fill-rule:nonzero;stroke:none"
         id=" path11394"
         d="m 702.055,371.219 v 14.385 l 21.187,-4.557 v -14.623 l 7.539,-1.508"
         inkscape:connector-curvature="0" />
      <path
         transform="translate(-4.0064612e-6)"
         style="fill:#ffffff;fill-rule:nonzero;stroke:none"
         id=" path11388"
         d="m 678.613,373.087 -13.277,2.675 9.39,7.168 12.616,-2.588 c 0.16,-0.033 0.327,0.008 0.454,0.112 0.126,0.103 0.2,0.258 0.2,0.422 v 5.873 l 5.347,9.86 43.796,-9.192 -6.835,-22.14 -11.7,-10.629 -6.276,1.203 -3.83,10.046 c -0.068,0.178 -0.226,0.309 -0.415,0.342 l -10.431,1.844 c -0.172,0.03 -0.347,-0.023 -0.472,-0.144 l -7.862,-7.56 -5.943,0.968 -4.229,11.058 8.676,8.072 c 0.221,0.205 0.233,0.55 0.028,0.77 -0.205,0.22 -0.549,0.232 -0.77,0.028 l -8.945,-8.323 c -0.163,-0.151 -0.217,-0.386 -0.138,-0.593 l 4.472,-11.693 c 0.07,-0.182 0.229,-0.312 0.421,-0.343 l 6.522,-1.063 c 0.169,-0.027 0.342,0.027 0.465,0.145 l 7.858,7.557 9.855,-1.742 3.828,-10.04 c 0.068,-0.177 0.221,-0.306 0.406,-0.341 l 6.842,-1.312 c 0.168,-0.032 0.342,0.017 0.469,0.132 l 12.011,10.912 c 0.073,0.066 0.126,0.149 0.155,0.242 l 7.055,22.854 c 0.045,0.147 0.027,0.305 -0.051,0.437 -0.078,0.132 -0.207,0.225 -0.358,0.257 l -44.777,9.397 c -0.235,0.05 -0.477,-0.062 -0.591,-0.273 l -5.607,-10.338 -0.065,-0.26 v -5.343 l -12.205,2.503 c -0.155,0.032 -0.315,-0.005 -0.44,-0.101 l -10.543,-8.048 c -0.169,-0.129 -0.248,-0.347 -0.2,-0.555 0.048,-0.208 0.214,-0.369 0.423,-0.412 l 14.456,-2.912 c 0.295,-0.059 0.582,0.132 0.642,0.427 0.059,0.295 -0.132,0.582 -0.427,0.641"
         inkscape:connector-curvature="0" />
      <path
         transform="translate(-4.0064612e-6)"
         style="fill:#ffffff;fill-rule:nonzero;stroke:none"
         id=" path11384"
         d="m 687.452,386.828 0.121,0.532 -12.86,2.935 c -0.161,0.036 -0.332,-0.002 -0.461,-0.106 -0.129,-0.103 -0.205,-0.26 -0.205,-0.426 v -6.31 c 0,-0.259 0.183,-0.483 0.438,-0.534 l 12.86,-2.577 c 0.16,-0.032 0.325,0.009 0.452,0.112 0.126,0.104 0.199,0.258 0.199,0.422 v 5.952 c 0,0.255 -0.175,0.475 -0.423,0.532 l -0.121,-0.532 h -0.545 v -5.288 l -11.77,2.36 v 5.18 l 12.194,-2.783 0.121,0.531 h -0.545 0.545"
         inkscape:connector-curvature="0" />
      <path
         transform="translate(-4.0064612e-6)"
         style="fill:#facc1a;fill-rule:nonzero;stroke:none"
         id=" path11382"
         d="m 687.452,386.828 -12.86,2.935 v -6.31 l 12.86,-2.577"
         inkscape:connector-curvature="0" />
      <path
         inkscape:original-d="m 712.328,355.851 c 3.63831,3.52402 7.27631,7.04835 10.914,10.573"
         inkscape:path-effect="#path-effect15756"
         inkscape:connector-curvature="0"
         id="path15754"
         d="m 712.328,355.851 c 3.638,3.52434 7.276,7.04867 10.914,10.573"
         style="fill:#ffffff;fill-opacity:1;fill-rule:evenodd;stroke:#ffffff;stroke-width:0.96896344;stroke-linecap:butt;stroke-linejoin:miter;stroke-miterlimit:4;stroke-dasharray:none;stroke-opacity:1" />
    </g>
  </g>
  <g
     inkscape:groupmode="layer"
     id="layer4"
     inkscape:label="pelotes"
     style="display:inline">
    <g
       style="display:inline"
       id="g11466"
       clip-path="url(#Clip15)"
       transform="matrix(2.3994714,0,0,2.3994714,-1391.0276,-318.3571)">
      <g
         id="g11468"
         clip-path="url(#Clip16)">
        <path
           style="fill:#facc1a;fill-rule:nonzero;stroke:none"
           id=" path11474"
           d="M 2.683,7.044 H 2.686 L 2.772,0.446 C 2.757,0.18 2.127,0 1.367,0.045 0.604,0.089 0,0.339 0.016,0.605 V 7.356 C 0.03,7.621 0.661,7.801 1.423,7.756 2.183,7.713 2.789,7.462 2.772,7.196 L 2.683,7.044"
           transform="translate(635.201,356.42)"
           inkscape:connector-curvature="0" />
        <path
           style="fill:#0040d9;fill-rule:nonzero;stroke:none"
           id=" path11476"
           d="M 2.683,10.542 H 2.687 L 2.774,0.446 C 2.757,0.18 2.128,0 1.367,0.045 0.605,0.088 0,0.339 0.015,0.605 v 10.248 c 0.017,0.266 0.645,0.446 1.408,0.401 0.761,-0.043 1.366,-0.294 1.351,-0.56 z"
           transform="translate(608.634,364.504)"
           inkscape:connector-curvature="0" />
        <path
           style="fill:#fcdbc6;fill-rule:nonzero;stroke:none"
           id=" path11478"
           d="M 2.683,10.542 H 2.686 L 2.774,0.446 C 2.757,0.181 2.127,0 1.367,0.045 0.606,0.089 0,0.339 0.016,0.605 v 10.248 c 0.015,0.266 0.645,0.446 1.407,0.401 0.761,-0.043 1.367,-0.294 1.351,-0.56 z"
           transform="translate(657.67,351.903)"
           inkscape:connector-curvature="0" />
        <path
           style="fill:#ff4c66;fill-rule:nonzero;stroke:none"
           id=" path11480"
           d="M 0,29.531 58.982,0 77.151,23.566 76.289,24.231 58.667,1.376 0.487,30.505 0,29.531"
           transform="translate(610.732,336.232)"
           inkscape:connector-curvature="0" />
        <path
           style="fill:#33ff00;fill-rule:nonzero;stroke:none"
           id=" path11482"
           d="M 0,20.941 31.782,0 46.737,23.993 45.812,24.57 31.448,1.524 0.599,21.85 Z"
           transform="translate(637.942,336.157)"
           inkscape:connector-curvature="0" />
        <path
           style="fill:#0040d9;fill-rule:nonzero;stroke:none"
           id=" path11484"
           d="M 0,19.329 36.413,0 50.817,27.318 49.853,27.826 35.959,1.474 0.511,20.291 Z"
           transform="translate(660.188,332.539)"
           inkscape:connector-curvature="0" />
        <path
           style="fill:#0040d9;fill-rule:nonzero;stroke:none"
           id=" path11486"
           d="M 0,42.8301 H 1.09023 V 0 H 0 Z"
           transform="translate(669.012,331.526)"
           inkscape:connector-curvature="0" />
        <path
           style="fill:#0040d9;fill-rule:nonzero;stroke:none"
           id=" path11488"
           d="M 0,38.3039 H 1.08906 V 0 H 0 Z"
           transform="translate(695.83,328.024)"
           inkscape:connector-curvature="0" />
        <path
           style="fill:#0040d9;fill-rule:nonzero;stroke:none"
           id=" path11490"
           d="M 0.088,0.062 0.062,0.122 0,0"
           transform="translate(677.596,423.52)"
           inkscape:connector-curvature="0" />
      </g>
    </g>
    <path
       transform="matrix(2.3994714,0,0,2.3994714,-1398.6429,-319.52869)"
       style="display:inline;fill:#ff4c66;fill-rule:nonzero;stroke:none"
       id=" path11286"
       d="m 606.15175,377.01327 -0.614,16.701 19.544,-2.762 -4.829,-14.752 -14.101,0.813"
       inkscape:connector-curvature="0" />
    <path
       transform="matrix(2.3994714,0,0,2.3994714,-1398.6429,-319.52869)"
       style="display:inline;fill:#0040d9;fill-rule:nonzero;stroke:none"
       id=" path11288"
       d="m 668.89775,362.66927 -13.319,0.767 0.163,21.052 16.989,-2.581 -3.833,-19.238"
       inkscape:connector-curvature="0" />
    <path
       transform="matrix(2.3994714,0,0,2.3994714,-1398.6429,-319.52869)"
       style="display:inline;fill:#33ff00;fill-rule:nonzero;stroke:none"
       id=" path11290"
       d="m 648.38875,363.49427 -17.663,1.018 0.521,25.471 22.635,-4.573 z"
       inkscape:connector-curvature="0" />
    <path
       transform="matrix(2.3994714,0,0,2.3994714,-1398.6429,-319.52869)"
       style="display:inline;fill:#ff4c66;fill-rule:nonzero;stroke:none"
       id=" path11414"
       d="m 620.25275,376.20127 c 0.077,1.358 -3.016,2.64 -6.909,2.865 -3.894,0.224 -7.113,-0.694 -7.192,-2.053 -0.08,-1.357 3.015,-2.641 6.908,-2.865 3.895,-0.223 7.115,0.695 7.193,2.053 z"
       inkscape:connector-curvature="0" />
    <g
       style="display:inline"
       id="g11416"
       clip-path="url(#Clip17)"
       transform="matrix(2.3994714,0,0,2.3994714,-1391.0276,-318.3571)">
      <g
         id="g11418"
         clip-path="url(#Clip18)">
        <path
           style="fill:#ff4c66;fill-rule:nonzero;stroke:none"
           id=" path11424"
           d="M 6.156,4.984 H 5.918 C 2.622,4.964 0.077,4.105 0.007,2.898 0.006,2.882 0.006,2.866 0.006,2.851 0,1.511 3.067,0.255 6.915,0.033 7.264,0.013 7.607,0.002 7.944,0 h 0.257 c 3.294,0.022 5.837,0.881 5.907,2.086 10e-4,0.015 10e-4,0.031 10e-4,0.047 0.004,1.341 -3.062,2.596 -6.91,2.818 -0.354,0.02 -0.702,0.031 -1.043,0.033"
           transform="translate(602.971,373.627)"
           inkscape:connector-curvature="0" />
      </g>
    </g>
    <g
       style="display:inline"
       id="g11436"
       clip-path="url(#Clip19)"
       transform="matrix(2.3994714,0,0,2.3994714,-1391.0276,-318.3571)">
      <g
         id="g11438"
         clip-path="url(#Clip20)">
        <path
           style="fill:#33ff00;fill-rule:nonzero;stroke:none"
           id=" path11444"
           d="M 7.475,5.649 H 7.301 C 3.216,5.635 0.078,4.685 0.001,3.333 0,3.315 0,3.297 0,3.279 0.003,1.764 3.852,0.325 8.672,0.046 9.164,0.017 9.648,0.002 10.119,0 h 0.304 c 4.055,0.023 7.162,0.969 7.241,2.315 10e-4,0.018 10e-4,0.036 10e-4,0.054 C 17.66,3.883 13.812,5.324 8.991,5.602 8.475,5.632 7.968,5.647 7.475,5.649"
           transform="translate(627.551,360.691)"
           inkscape:connector-curvature="0" />
      </g>
    </g>
    <g
       style="display:inline"
       id="g11456"
       clip-path="url(#Clip21)"
       transform="matrix(2.3994714,0,0,2.3994714,-1391.0276,-318.3571)">
      <g
         id="g11458"
         clip-path="url(#Clip22)">
        <path
           style="fill:#0040d9;fill-rule:nonzero;stroke:none"
           id=" path11464"
           d="M 5.9,4.906 H 5.607 C 2.489,4.88 0.078,4.027 0.008,2.837 0.007,2.821 0.007,2.805 0.007,2.79 0,1.47 2.893,0.24 6.529,0.03 6.885,0.01 7.236,0 7.579,0 c 3.19,0 5.678,0.86 5.748,2.07 10e-4,0.015 10e-4,0.031 10e-4,0.047 0.008,1.32 -2.886,2.55 -6.521,2.759 C 6.5,4.894 6.197,4.904 5.9,4.906 Z"
           transform="translate(652.397,360.111)"
           inkscape:connector-curvature="0" />
      </g>
    </g>
    <g
       style="display:inline"
       id="g11426"
       clip-path="url(#Clip23)"
       transform="matrix(2.3994714,0,0,2.3994714,-1391.0276,-318.3571)">
      <g
         id="g11428"
         clip-path="url(#Clip24)">
        <path
           style="fill:#33ff00;fill-rule:nonzero;stroke:none"
           id=" path11434"
           d="M 17.752,2.549 C 17.84,4.083 13.957,5.555 9.079,5.836 4.202,6.117 0.176,5.101 0.089,3.567 0,2.033 3.883,0.562 8.76,0.28 13.637,0 17.662,1.015 17.752,2.549"
           transform="translate(627.463,360.457)"
           inkscape:connector-curvature="0" />
      </g>
    </g>
    <g
       style="display:inline"
       id="g11446"
       clip-path="url(#Clip25)"
       transform="matrix(2.3994714,0,0,2.3994714,-1391.0276,-318.3571)">
      <g
         id="g11448"
         clip-path="url(#Clip26)">
        <path
           style="fill:#0040d9;fill-rule:nonzero;stroke:none"
           id=" path11454"
           d="M 13.395,2.251 C 13.472,3.588 10.553,4.846 6.875,5.057 3.197,5.269 0.154,4.356 0.076,3.018 0,1.68 2.918,0.424 6.597,0.211 10.274,0 13.317,0.912 13.395,2.251 Z"
           transform="translate(652.329,359.93)"
           inkscape:connector-curvature="0" />
      </g>
    </g>
  </g>
</svg>
