{
    "name": "pieceknit_layer1",
    "number": 11,
    "model": null,
    "kPartsList": [
        {
            "0_CastOnPartSeg": {
                "number": 0,
                "piecename": "pieceknit_layer1",
                "base": [
                    {
                        "complex": [
                            9.675920099999999,
                            424.79696
                        ]
                    },
                    {
                        "complex": [
                            17.676367,
                            424.79696
                        ]
                    }
                ],
                "bordersList": [
                    [
                        {
                            "LineBorder": {
                                "Line": {
                                    "start": {
                                        "complex": [
                                            9.675920099999999,
                                            424.79696
                                        ]
                                    },
                                    "end": {
                                        "complex": [
                                            9.885521219668702,
                                            408.30077
                                        ]
                                    }
                                }
                            }
                        }
                    ],
                    [
                        {
                            "VerticalBorder": {
                                "Line": {
                                    "start": {
                                        "complex": [
                                            17.676367,
                                            424.79696
                                        ]
                                    },
                                    "end": {
                                        "complex": [
                                            17.676367,
                                            412.69852
                                        ]
                                    }
                                }
                            }
                        },
                        {
                            "HorIncreaseBorder": {
                                "Line": {
                                    "start": {
                                        "complex": [
                                            17.676367,
                                            412.69852
                                        ]
                                    },
                                    "end": {
                                        "complex": [
                                            24.543909,
                                            412.69852
                                        ]
                                    }
                                }
                            }
                        },
                        {
                            "LineBorder": {
                                "Line": {
                                    "start": {
                                        "complex": [
                                            24.543909,
                                            412.69852
                                        ]
                                    },
                                    "end": {
                                        "complex": [
                                            27.789068,
                                            410.64419
                                        ]
                                    }
                                }
                            }
                        },
                        {
                            "LineBorder": {
                                "Line": {
                                    "start": {
                                        "complex": [
                                            27.789068,
                                            410.64419
                                        ]
                                    },
                                    "end": {
                                        "complex": [
                                            29.115173855153284,
                                            408.30077
                                        ]
                                    }
                                }
                            }
                        }
                    ]
                ],
                "previous": [],
                "nexts": [
                    1,
                    2,
                    3
                ]
            }
        },
        {
            "1_SplitPart": {
                "number": 1,
                "piecename": "pieceknit_layer1",
                "base": [
                    {
                        "complex": [
                            9.885521219668702,
                            408.30077
                        ]
                    },
                    {
                        "complex": [
                            16.57335999999998,
                            408.30077
                        ]
                    }
                ],
                "bordersList": [
                    [
                        {
                            "LineBorder": {
                                "Line": {
                                    "start": {
                                        "complex": [
                                            9.885521219668702,
                                            408.30077
                                        ]
                                    },
                                    "end": {
                                        "complex": [
                                            9.9612155,
                                            402.34342000000004
                                        ]
                                    }
                                }
                            }
                        },
                        {
                            "HorIncreaseBorder": {
                                "Line": {
                                    "start": {
                                        "complex": [
                                            9.9612155,
                                            402.34342000000004
                                        ]
                                    },
                                    "end": {
                                        "complex": [
                                            -0.03878431999999954,
                                            402.34342000000004
                                        ]
                                    }
                                }
                            }
                        },
                        {
                            "CurveBorder": {
                                "CubicBezier": {
                                    "start": {
                                        "complex": [
                                            -0.03878431999999954,
                                            402.34342000000004
                                        ]
                                    },
                                    "end": {
                                        "complex": [
                                            5.476886500000001,
                                            389.6016
                                        ]
                                    },
                                    "control1": {
                                        "complex": [
                                            5.268748,
                                            399.90002000000004
                                        ]
                                    },
                                    "control2": {
                                        "complex": [
                                            6.517579200000001,
                                            392.66942
                                        ]
                                    }
                                }
                            }
                        },
                        {
                            "LineBorder": {
                                "Line": {
                                    "start": {
                                        "complex": [
                                            5.476886500000001,
                                            389.6016
                                        ]
                                    },
                                    "end": {
                                        "complex": [
                                            8.1826874,
                                            384.52888
                                        ]
                                    }
                                }
                            }
                        },
                        {
                            "LineBorder": {
                                "Line": {
                                    "start": {
                                        "complex": [
                                            8.1826874,
                                            384.52888
                                        ]
                                    },
                                    "end": {
                                        "complex": [
                                            10.825342999999979,
                                            382.58627
                                        ]
                                    }
                                }
                            }
                        }
                    ],
                    [
                        {
                            "VerticalBorder": {
                                "Line": {
                                    "start": {
                                        "complex": [
                                            16.57335999999998,
                                            408.30077
                                        ]
                                    },
                                    "end": {
                                        "complex": [
                                            16.57335999999998,
                                            382.58627
                                        ]
                                    }
                                }
                            }
                        }
                    ]
                ],
                "previous": [
                    0
                ],
                "nexts": [
                    10
                ],
                "neighbours": [
                    {
                        "complex": [
                            16.57335999999998,
                            408.30077
                        ]
                    },
                    {
                        "complex": [
                            24.62817799999998,
                            408.30077
                        ]
                    }
                ]
            }
        },
        {
            "2_SplitPart": {
                "number": 2,
                "piecename": "pieceknit_layer1",
                "base": [
                    {
                        "complex": [
                            24.62817799999998,
                            408.30077
                        ]
                    },
                    {
                        "complex": [
                            29.115173855153284,
                            408.30077
                        ]
                    }
                ],
                "bordersList": [
                    [
                        {
                            "VerticalBorder": {
                                "Line": {
                                    "start": {
                                        "complex": [
                                            24.62817799999998,
                                            408.30077
                                        ]
                                    },
                                    "end": {
                                        "complex": [
                                            24.62817799999998,
                                            404.87852
                                        ]
                                    }
                                }
                            }
                        }
                    ],
                    [
                        {
                            "LineBorder": {
                                "Line": {
                                    "start": {
                                        "complex": [
                                            29.115173855153284,
                                            408.30077
                                        ]
                                    },
                                    "end": {
                                        "complex": [
                                            29.300603,
                                            407.97308999999996
                                        ]
                                    }
                                }
                            }
                        },
                        {
                            "LineBorder": {
                                "Line": {
                                    "start": {
                                        "complex": [
                                            29.300603,
                                            407.97308999999996
                                        ]
                                    },
                                    "end": {
                                        "complex": [
                                            31.257717999999997,
                                            404.87852
                                        ]
                                    }
                                }
                            }
                        }
                    ]
                ],
                "previous": [
                    0
                ],
                "nexts": [
                    4
                ],
                "neighbours": [
                    {
                        "complex": [
                            16.57335999999998,
                            408.30077
                        ]
                    },
                    {
                        "complex": [
                            24.62817799999998,
                            408.30077
                        ]
                    }
                ]
            }
        },
        {
            "3_SegSplitPart": {
                "number": 3,
                "piecename": "pieceknit_layer1",
                "base": [
                    {
                        "complex": [
                            16.57335999999998,
                            408.30077
                        ]
                    },
                    {
                        "complex": [
                            24.62817799999998,
                            408.30077
                        ]
                    }
                ],
                "bordersList": [
                    [],
                    []
                ],
                "previous": [
                    0
                ],
                "nexts": [],
                "neighbours": [
                    {
                        "complex": [
                            16.57335999999998,
                            408.30077
                        ]
                    },
                    {
                        "complex": [
                            24.62817799999998,
                            408.30077
                        ]
                    }
                ]
            }
        },
        {
            "4_JoinPart": {
                "number": 4,
                "piecename": "pieceknit_layer1",
                "base": [
                    {
                        "complex": [
                            24.62817799999998,
                            404.87852
                        ]
                    },
                    {
                        "complex": [
                            56.427586335679806,
                            404.87852
                        ]
                    }
                ],
                "bordersList": [
                    [
                        {
                            "VerticalBorder": {
                                "Line": {
                                    "start": {
                                        "complex": [
                                            24.62817799999998,
                                            404.87852
                                        ]
                                    },
                                    "end": {
                                        "complex": [
                                            24.62817799999998,
                                            396.21872999999994
                                        ]
                                    }
                                }
                            }
                        }
                    ],
                    [
                        {
                            "LineBorder": {
                                "Line": {
                                    "start": {
                                        "complex": [
                                            56.427586335679806,
                                            404.87852
                                        ]
                                    },
                                    "end": {
                                        "complex": [
                                            56.50147599999999,
                                            396.21872999999994
                                        ]
                                    }
                                }
                            }
                        }
                    ]
                ],
                "previous": [
                    2,
                    6,
                    5
                ],
                "nexts": [
                    7
                ]
            }
        },
        {
            "5_CastOnPartSeg": {
                "number": 5,
                "piecename": "pieceknit_layer1",
                "base": [
                    {
                        "complex": [
                            31.288667999999998,
                            421.24593
                        ]
                    },
                    {
                        "complex": [
                            37.234809,
                            421.24593
                        ]
                    }
                ],
                "bordersList": [
                    [
                        {
                            "LineBorder": {
                                "Line": {
                                    "start": {
                                        "complex": [
                                            31.288667999999998,
                                            421.24593
                                        ]
                                    },
                                    "end": {
                                        "complex": [
                                            31.257717999999997,
                                            404.87852
                                        ]
                                    }
                                }
                            }
                        }
                    ],
                    [
                        {
                            "LineBorder": {
                                "Line": {
                                    "start": {
                                        "complex": [
                                            37.234809,
                                            421.24593
                                        ]
                                    },
                                    "end": {
                                        "complex": [
                                            37.250749,
                                            411.03130999999996
                                        ]
                                    }
                                }
                            }
                        },
                        {
                            "HorIncreaseBorder": {
                                "Line": {
                                    "start": {
                                        "complex": [
                                            37.250749,
                                            411.03130999999996
                                        ]
                                    },
                                    "end": {
                                        "complex": [
                                            39.996779,
                                            411.03130999999996
                                        ]
                                    }
                                }
                            }
                        },
                        {
                            "LineBorder": {
                                "Line": {
                                    "start": {
                                        "complex": [
                                            39.996779,
                                            411.03130999999996
                                        ]
                                    },
                                    "end": {
                                        "complex": [
                                            40.037419,
                                            407.24186
                                        ]
                                    }
                                }
                            }
                        },
                        {
                            "HorIncreaseBorder": {
                                "Line": {
                                    "start": {
                                        "complex": [
                                            40.037419,
                                            407.24186
                                        ]
                                    },
                                    "end": {
                                        "complex": [
                                            44.833801,
                                            407.24186
                                        ]
                                    }
                                }
                            }
                        },
                        {
                            "LineBorder": {
                                "Line": {
                                    "start": {
                                        "complex": [
                                            44.833801,
                                            407.24186
                                        ]
                                    },
                                    "end": {
                                        "complex": [
                                            47.884513,
                                            404.87852
                                        ]
                                    }
                                }
                            }
                        }
                    ]
                ],
                "previous": [],
                "nexts": [
                    4
                ]
            }
        },
        {
            "6_CastOnPartSeg": {
                "number": 6,
                "piecename": "pieceknit_layer1",
                "base": [
                    {
                        "complex": [
                            51.33282499999999,
                            411.36762999999996
                        ]
                    },
                    {
                        "complex": [
                            56.37221799999999,
                            411.36762999999996
                        ]
                    }
                ],
                "bordersList": [
                    [
                        {
                            "LineBorder": {
                                "Line": {
                                    "start": {
                                        "complex": [
                                            51.33282499999999,
                                            411.36762999999996
                                        ]
                                    },
                                    "end": {
                                        "complex": [
                                            51.436893999999995,
                                            404.87852
                                        ]
                                    }
                                }
                            }
                        },
                        {
                            "HorJoinBorder": {
                                "Line": {
                                    "start": {
                                        "complex": [
                                            51.436893999999995,
                                            404.87852
                                        ]
                                    },
                                    "end": {
                                        "complex": [
                                            47.884513,
                                            404.87852
                                        ]
                                    }
                                }
                            }
                        }
                    ],
                    [
                        {
                            "LineBorder": {
                                "Line": {
                                    "start": {
                                        "complex": [
                                            56.37221799999999,
                                            411.36762999999996
                                        ]
                                    },
                                    "end": {
                                        "complex": [
                                            56.427586335679806,
                                            404.87852
                                        ]
                                    }
                                }
                            }
                        }
                    ]
                ],
                "previous": [],
                "nexts": [
                    4
                ]
            }
        },
        {
            "7_JoinPart": {
                "number": 7,
                "piecename": "pieceknit_layer1",
                "base": [
                    {
                        "complex": [
                            24.62817799999998,
                            396.21872999999994
                        ]
                    },
                    {
                        "complex": [
                            67.65172353507528,
                            396.21872999999994
                        ]
                    }
                ],
                "bordersList": [
                    [
                        {
                            "VerticalBorder": {
                                "Line": {
                                    "start": {
                                        "complex": [
                                            24.62817799999998,
                                            396.21872999999994
                                        ]
                                    },
                                    "end": {
                                        "complex": [
                                            24.62817799999998,
                                            382.58626
                                        ]
                                    }
                                }
                            }
                        }
                    ],
                    [
                        {
                            "LineBorder": {
                                "Line": {
                                    "start": {
                                        "complex": [
                                            67.65172353507528,
                                            396.21872999999994
                                        ]
                                    },
                                    "end": {
                                        "complex": [
                                            65.87620899999997,
                                            390.91653
                                        ]
                                    }
                                }
                            }
                        },
                        {
                            "LineBorder": {
                                "Line": {
                                    "start": {
                                        "complex": [
                                            65.87620899999997,
                                            390.91653
                                        ]
                                    },
                                    "end": {
                                        "complex": [
                                            62.722046999999975,
                                            385.88925
                                        ]
                                    }
                                }
                            }
                        },
                        {
                            "LineBorder": {
                                "Line": {
                                    "start": {
                                        "complex": [
                                            62.722046999999975,
                                            385.88925
                                        ]
                                    },
                                    "end": {
                                        "complex": [
                                            46.62164799999998,
                                            382.58626
                                        ]
                                    }
                                }
                            }
                        }
                    ]
                ],
                "previous": [
                    4,
                    8
                ],
                "nexts": [
                    9
                ]
            }
        },
        {
            "8_CastOnPartPoint": {
                "number": 8,
                "piecename": "pieceknit_layer1",
                "base": [
                    {
                        "complex": [
                            60.517597999999985,
                            414.34396999999996
                        ]
                    }
                ],
                "bordersList": [
                    [
                        {
                            "LineBorder": {
                                "Line": {
                                    "start": {
                                        "complex": [
                                            60.517597999999985,
                                            414.34396999999996
                                        ]
                                    },
                                    "end": {
                                        "complex": [
                                            60.71254399999999,
                                            396.21872999999994
                                        ]
                                    }
                                }
                            }
                        },
                        {
                            "HorJoinBorder": {
                                "Line": {
                                    "start": {
                                        "complex": [
                                            60.71254399999999,
                                            396.21872999999994
                                        ]
                                    },
                                    "end": {
                                        "complex": [
                                            56.50147599999999,
                                            396.21872999999994
                                        ]
                                    }
                                }
                            }
                        }
                    ],
                    [
                        {
                            "LineBorder": {
                                "Line": {
                                    "start": {
                                        "complex": [
                                            60.517597999999985,
                                            414.34396999999996
                                        ]
                                    },
                                    "end": {
                                        "complex": [
                                            64.01194399999999,
                                            412.63710999999995
                                        ]
                                    }
                                }
                            }
                        },
                        {
                            "LineBorder": {
                                "Line": {
                                    "start": {
                                        "complex": [
                                            64.01194399999999,
                                            412.63710999999995
                                        ]
                                    },
                                    "end": {
                                        "complex": [
                                            65.96717899999999,
                                            407.25903999999997
                                        ]
                                    }
                                }
                            }
                        },
                        {
                            "LineBorder": {
                                "Line": {
                                    "start": {
                                        "complex": [
                                            65.96717899999999,
                                            407.25903999999997
                                        ]
                                    },
                                    "end": {
                                        "complex": [
                                            64.37100499999998,
                                            404.87852
                                        ]
                                    }
                                }
                            }
                        },
                        {
                            "HorIncreaseBorder": {
                                "Line": {
                                    "start": {
                                        "complex": [
                                            64.37100499999998,
                                            404.87852
                                        ]
                                    },
                                    "end": {
                                        "complex": [
                                            68.07214499999998,
                                            404.87852
                                        ]
                                    }
                                }
                            }
                        },
                        {
                            "LineBorder": {
                                "Line": {
                                    "start": {
                                        "complex": [
                                            68.07214499999998,
                                            404.87852
                                        ]
                                    },
                                    "end": {
                                        "complex": [
                                            68.81682499999998,
                                            399.69806
                                        ]
                                    }
                                }
                            }
                        },
                        {
                            "LineBorder": {
                                "Line": {
                                    "start": {
                                        "complex": [
                                            68.81682499999998,
                                            399.69806
                                        ]
                                    },
                                    "end": {
                                        "complex": [
                                            67.65172353507528,
                                            396.21872999999994
                                        ]
                                    }
                                }
                            }
                        }
                    ]
                ],
                "previous": [],
                "nexts": [
                    7
                ]
            }
        },
        {
            "9_CastOffPartSeg": {
                "number": 9,
                "piecename": "pieceknit_layer1",
                "base": [
                    {
                        "complex": [
                            24.62817799999998,
                            382.58626
                        ]
                    },
                    {
                        "complex": [
                            46.62164799999998,
                            382.58626
                        ]
                    }
                ],
                "bordersList": [
                    [],
                    []
                ],
                "previous": [
                    7
                ],
                "nexts": []
            }
        },
        {
            "10_CastOffPartSeg": {
                "number": 10,
                "piecename": "pieceknit_layer1",
                "base": [
                    {
                        "complex": [
                            10.825342999999979,
                            382.58627
                        ]
                    },
                    {
                        "complex": [
                            16.57335999999998,
                            382.58627
                        ]
                    }
                ],
                "bordersList": [
                    [],
                    []
                ],
                "previous": [
                    1
                ],
                "nexts": []
            }
        }
    ]
}